turn		mean		sd
16		19.1		1.5239
32		28.9		2.8848
48		38.8		2.7809
64		49.7		3.093
80		60.5		3.4721
96		71.0		3.7417
112		82.1		3.7845
128		91.9		3.6953
144		101.0		3.8586
160		111.0		4.5461
176		120.8		5.1164
192		130.3		5.3344
208		140.1		4.8178
224		151.2		4.9171
240		162.8		5.0288
256		172.7		4.3982
272		183.0		3.559
288		192.2		3.4897
304		202.1		3.1429
320		210.9		2.1833
336		220.4		1.7127
352		228.7		2.7909
368		235.4		2.4585
384		244.8		0.6325
400		247.0		0.0
