turn		mean		sd
40		19.05		5.8443
80		33.75		11.0781
120		48.5		16.0049
160		66.4		21.6172
200		87.45		25.8853
240		108.35		32.1907
280		129.2		35.2354
320		154.55		35.3709
360		176.3		34.6366
400		200.05		36.3875
440		223.6		37.7992
480		247.0		36.2811
520		271.0		36.9167
560		293.5		37.5507
600		316.95		37.3666
640		338.2		37.268
680		360.2		37.0896
720		383.4		36.0926
760		404.0		36.3651
800		424.5		35.6777
840		446.45		35.8762
880		467.25		36.5022
920		488.2		35.3681
960		509.85		38.3561
1000		530.55		39.4521
