turn		mean		sd
40		22.7333		4.5272
80		32.7333		6.3524
120		42.9333		9.4224
160		54.3333		12.6246
200		68.6		13.26
240		81.2667		14.8443
280		96.0		17.6918
320		111.6667		18.4726
360		127.0		18.443
400		145.4667		21.4305
440		167.5333		26.2838
480		188.2		28.143
520		209.8		30.746
560		230.0		34.3324
600		249.1333		35.4861
640		269.5333		38.3664
680		291.7333		38.4958
720		314.4667		39.4441
760		334.0667		41.5528
800		354.5333		41.0102
840		374.1333		43.5166
880		393.5333		44.5659
920		414.5333		44.9744
960		432.2667		48.9307
1000		445.2		54.5399
