turn		mean		sd
16		8.2		1.4243
32		14.0		3.3594
48		17.6667		5.0238
64		21.2		6.1085
80		24.7333		7.6855
96		27.4		9.2257
112		29.8667		9.687
128		33.2667		9.1063
144		36.0		8.3751
160		38.4		7.4046
176		40.7333		6.5407
192		42.3333		6.1373
208		43.8667		6.5232
224		44.6		6.577
240		45.8		6.6138
256		46.4		6.6095
272		46.6667		6.5429
288		46.9333		6.1466
304		47.2		5.9064
320		47.3333		5.9241
336		47.5333		6.0694
352		47.6		6.1389
368		47.6		6.1389
384		47.6		6.1389
400		47.6		6.1389
