turn		mean		sd
40		14.5		3.3482
80		23.7		5.4299
120		31.35		6.9151
160		39.35		8.7375
200		48.3		11.0839
240		57.15		12.1321
280		67.05		13.1928
320		74.75		16.3799
360		81.75		19.4554
400		88.1		22.4216
440		97.0		25.67
480		106.2		28.1156
520		115.7		30.2709
560		125.35		32.9821
600		134.7		37.9114
640		144.0		41.107
680		152.2		44.1047
720		160.95		46.8238
760		170.2		49.8868
800		178.7		53.2245
840		188.25		54.6114
880		197.9		56.225
920		211.5		58.3641
960		222.4		59.6202
1000		231.85		61.1601
