[1] "donors"
[1] "1m, 2s vs. 2m, 1s"
51.2800, IC = [50.8878, 51.6722]
50.3200, IC = [49.6611, 50.9789]
[1] "Equal!"
[1] "1m, 3s vs. 3m, 1s"
50.3400, IC = [49.6064, 51.0736]
50.8800, IC = [50.3127, 51.4473]
[1] "Equal!"
[1] "1m, 4s vs. 4m, 1s"
50.4800, IC = [49.9753, 50.9847]
52.0800, IC = [51.6541, 52.5059]
[1] "Different!"
[1] "1m, 5s vs. 5m, 1s"
51.5400, IC = [51.1635, 51.9165]
51.8800, IC = [51.4194, 52.3406]
[1] "Equal!"

[1] "dbpedia"
[1] "1m, 2s vs. 2m, 1s"
523.0400, IC = [506.2547, 539.8253]
555.1000, IC = [548.2611, 561.9389]
[1] "Different!"
[1] "1m, 3s vs. 3m, 1s"
523.9000, IC = [504.1092, 543.6908]
562.4600, IC = [551.8300, 573.0900]
[1] "Different!"
[1] "1m, 4s vs. 4m, 1s"
540.8367, IC = [535.4211, 546.2524]
557.7755, IC = [548.9014, 566.6497]
[1] "Different!"
[1] "1m, 5s vs. 5m, 1s"
533.7800, IC = [524.4368, 543.1232]
555.4800, IC = [543.2412, 567.7188]
[1] "Different!"

[1] "citeseer"
[1] "1m, 2s vs. 2m, 1s"
739.7600, IC = [725.5411, 753.9789]
745.8800, IC = [736.0909, 755.6691]
[1] "Equal!"
[1] "1m, 3s vs. 3m, 1s"
752.4600, IC = [744.6524, 760.2676]
759.3200, IC = [750.3906, 768.2494]
[1] "Equal!"
[1] "1m, 4s vs. 4m, 1s"
756.2400, IC = [748.3520, 764.1280]
761.4200, IC = [754.3023, 768.5377]
[1] "Equal!"
[1] "1m, 5s vs. 5m, 1s"
759.5000, IC = [750.7675, 768.2325]
757.1800, IC = [750.9118, 763.4482]
[1] "Equal!"
[1] "1m, 6s vs. 6m, 1s"
760.7200, IC = [752.5795, 768.8605]
769.1600, IC = [762.4802, 775.8398]
[1] "Equal!"
[1] "1m, 7s vs. 7m, 1s"
766.5400, IC = [758.2106, 774.8694]
766.7600, IC = [758.4223, 775.0977]
[1] "Equal!"
[1] "1m, 8s vs. 8m, 1s"
762.2800, IC = [754.7443, 769.8157]
763.3000, IC = [756.3813, 770.2187]
[1] "Equal!"
[1] "1m, 9s vs. 9m, 1s"
767.5600, IC = [757.5010, 777.6190]
762.3200, IC = [755.7504, 768.8896]
[1] "Equal!"
[1] "1m, 10s vs. 10m, 1s"
764.2000, IC = [756.5341, 771.8659]
752.5000, IC = [745.1217, 759.8783]
[1] "Equal!"

[1] "wikipedia"
[1] "1m, 2s vs. 2m, 1s"
150.2800, IC = [140.9350, 159.6250]
144.1600, IC = [134.2888, 154.0312]
[1] "Equal!"
[1] "1m, 3s vs. 3m, 1s"
147.2653, IC = [137.7373, 156.7933]
133.2041, IC = [123.0849, 143.3232]
[1] "Equal!"
[1] "1m, 4s vs. 4m, 1s"
157.7143, IC = [151.3879, 164.0407]
125.4286, IC = [117.3519, 133.5052]
[1] "Different!"
[1] "1m, 5s vs. 5m, 1s"
153.1633, IC = [145.4761, 160.8504]
128.4898, IC = [121.2575, 135.7221]
[1] "Different!"
[1] "1m, 6s vs. 6m, 1s"
155.1200, IC = [149.8863, 160.3537]
135.1200, IC = [128.4209, 141.8191]
[1] "Different!"

