turn		mean		sd
16		41.9		3.2751
32		56.75		3.6401
48		71.05		4.4305
64		85.4		4.9673
80		99.3		5.6856
96		114.65		5.9052
112		129.95		6.4846
128		145.35		6.5877
144		159.35		6.953
160		173.7		7.3563
176		188.2		8.0825
192		202.35		7.8825
208		216.65		6.7534
224		230.95		5.969
240		245.35		4.6597
256		259.7		4.1562
272		274.35		3.0826
288		288.7		2.4301
304		302.55		2.5644
320		316.8		2.1909
336		326.95		1.099
352		328.0		0.0
368		328.0		0.0
384		328.0		0.0
400		328.0		0.0
