turn		mean		sd
16		27.05		0.9987
32		42.5		1.2354
48		58.15		1.6631
64		73.95		1.7313
80		89.35		1.9808
96		104.6		2.3709
112		120.1		2.5731
128		135.35		3.1669
144		151.0		2.9736
160		166.5		3.0349
176		181.75		2.9357
192		197.2		2.8396
208		212.15		2.7773
224		226.75		3.1602
240		241.6		3.6764
256		254.6		4.16
272		264.95		6.5813
288		279.0		6.2828
304		293.9		5.4474
320		307.35		4.0946
336		319.05		1.6051
352		328.0		0.0
368		328.0		0.0
384		328.0		0.0
400		328.0		0.0
