turn		mean		sd
12		11.7		2.2501
24		13.75		2.4252
36		15.85		3.1834
48		18.8		3.4883
60		21.1		3.8512
72		23.85		4.3198
84		26.15		4.6597
96		29.2		5.4057
108		32.05		5.9954
120		33.95		6.4029
132		35.75		7.2248
144		37.25		7.2684
156		38.5		6.7784
168		39.45		6.9166
180		40.95		6.0739
192		41.75		5.9372
204		42.65		5.8063
216		43.3		5.6671
228		44.1		5.4666
240		45.0		4.1039
252		45.65		3.6168
264		45.85		3.7031
276		46.25		3.8096
288		46.4		3.7613
300		47.05		3.6487
