turn		mean		sd
12		12.05		2.1392
24		14.15		2.7582
36		16.25		3.0586
48		18.85		2.9961
60		20.6		2.9451
72		22.95		3.5314
84		25.35		3.6458
96		27.35		4.0429
108		30.0		4.6679
120		32.95		4.8175
132		35.45		4.4186
144		37.7		3.7989
156		40.1		3.81
168		41.35		4.1074
180		42.05		4.2485
192		43.15		4.2212
204		43.75		4.2535
216		44.45		4.4186
228		44.8		4.4319
240		45.3		4.6915
252		45.75		4.5754
264		46.1		4.3878
276		46.3		4.3782
288		46.6		4.4414
300		46.8		4.4319
