turn		mean		sd
46		23.3333		12.9171
93		44.3667		22.8948
140		66.7		32.4017
186		90.8333		42.7665
233		115.7		52.2251
280		139.4333		60.7168
326		164.0		71.4534
373		188.0667		80.9759
420		212.3		90.8262
466		236.3		99.9369
513		259.8667		109.3485
560		283.6667		117.755
606		307.2		125.2852
653		329.5333		133.1586
700		350.0		141.5856
746		370.7		149.4602
793		391.2		154.9584
840		411.7333		159.9394
886		432.1667		165.4793
933		454.0		170.8835
980		475.2333		176.129
1026		493.4333		181.358
1073		513.2333		187.0804
1120		532.9667		192.4012
1166		550.1667		196.6685
1213		566.7		201.4287
1260		581.8333		205.5705
1306		596.5		209.886
1353		612.2		214.3116
1400		629.0333		218.6538
