turn		mean		sd
16		38.4		1.3917
32		53.8		1.6733
48		69.15		1.8994
64		84.75		1.8883
80		99.95		2.1879
96		115.8		2.1909
112		131.65		2.1831
128		146.95		2.5021
144		162.2		2.353
160		177.45		1.7313
176		192.65		1.8432
192		208.0		1.8064
208		223.0		1.9194
224		237.6		2.7985
240		251.85		2.9249
256		262.8		4.6634
272		273.7		6.2753
288		287.35		5.6127
304		301.9		4.6101
320		314.75		3.6689
336		326.55		0.6863
352		328.0		0.0
368		328.0		0.0
384		328.0		0.0
400		328.0		0.0
