turn		mean		sd
12		9.25		2.7697
24		12.1		3.9323
36		15.0		5.4095
48		17.45		6.5331
60		19.5		7.5915
72		21.8		8.9419
84		23.2		9.8012
96		25.05		9.6925
108		26.95		9.5888
120		28.2		9.4735
132		30.0		9.3358
144		31.25		9.5415
156		32.45		9.5282
168		33.3		9.3308
180		34.4		9.4668
192		35.1		9.1818
204		35.8		9.3392
216		36.45		9.5282
228		37.45		9.0987
240		38.2		8.5692
252		39.2		8.0302
264		39.85		7.8222
276		40.75		7.2248
288		41.5		7.1635
300		42.0		7.2765
