turn		mean		sd
48		17.65		5.3042
96		27.9		7.7112
144		38.65		10.9269
192		49.9		13.572
240		61.35		16.9807
288		73.4		20.8286
336		88.25		23.519
384		104.45		26.9746
432		121.35		30.3268
480		136.9		32.7316
528		154.55		34.4024
576		168.25		35.2448
624		181.9		36.6648
672		193.95		38.7902
720		206.15		39.4799
768		218.7		40.3199
816		232.9		40.6667
864		245.0		41.0635
912		257.5		43.2538
960		270.3		46.2079
1008		280.5		48.9172
1056		292.45		49.5777
1104		303.1		50.7853
1152		313.8		50.0133
1200		326.55		47.7278
