turn		mean		sd
48		18.1		5.8481
96		29.85		7.6038
144		42.75		12.0825
192		57.85		17.7654
240		75.95		23.0616
288		91.8		28.5096
336		105.05		32.3931
384		119.7		35.8169
432		135.7		37.4181
480		152.2		38.1377
528		168.75		38.5853
576		184.25		38.5744
624		197.3		39.5249
672		209.85		40.1999
720		226.4		39.3238
768		239.05		37.5731
816		250.55		38.6366
864		263.3		39.0992
912		274.1		40.2844
960		286.0		38.5528
1008		297.25		37.6869
1056		309.6		33.8874
1104		321.0		30.2411
1152		331.9		27.6366
1200		342.55		28.0741
